{
  "project_info": {
    "project_number": "618892542161",
    "firebase_url": "https://tafel-app.firebaseio.com",
    "project_id": "tafel-app",
    "storage_bucket": "tafel-app.appspot.com"
  },
  "client": [
    {
      "client_info": {
        "mobilesdk_app_id": "1:618892542161:android:a04f2a25f8a4f17e",
        "android_client_info": {
          "package_name": "vanderplas.vanholsteijn.tafelapp"
        }
      },
      "oauth_client": [
        {
          "client_id": "618892542161-ib4epvinflbqabtr9nnvc3q5ldgu8if5.apps.googleusercontent.com",
          "client_type": 1,
          "android_info": {
            "package_name": "vanderplas.vanholsteijn.tafelapp",
            "certificate_hash": "39480424b0483d3b7da1f7ca4d113c9a3a80c784"
          }
        },
        {
          "client_id": "618892542161-qqruevc2lh35cbfpsvivc8riru448jgn.apps.googleusercontent.com",
          "client_type": 1,
          "android_info": {
            "package_name": "vanderplas.vanholsteijn.tafelapp",
            "certificate_hash": "92a894df41d6601aa1e40cf831c5be27426851dc"
          }
        },
        {
          "client_id": "618892542161-p64pn7dbse9qj1t03cqe32krh2f0852o.apps.googleusercontent.com",
          "client_type": 3
        }
      ],
      "api_key": [
        {
          "current_key": "AIzaSyBUQdYOb5C4TfTp85P462MLXeqGBlWOQIQ"
        }
      ],
      "services": {
        "analytics_service": {
          "status": 1
        },
        "appinvite_service": {
          "status": 2,
          "other_platform_oauth_client": [
            {
              "client_id": "618892542161-p64pn7dbse9qj1t03cqe32krh2f0852o.apps.googleusercontent.com",
              "client_type": 3
            }
          ]
        },
        "ads_service": {
          "status": 2
        }
      }
    }
  ],
  "configuration_version": "1"
}